{
  "login": "rodrigotoledo",
  "id": 21656,
  "node_id": "MDQ6VXNlcjIxNjU2",
  "avatar_url": "https://avatars.githubusercontent.com/u/21656?v=4",
  "gravatar_id": "",
  "url": "https://api.github.com/users/rodrigotoledo",
  "html_url": "https://github.com/rodrigotoledo",
  "followers_url": "https://api.github.com/users/rodrigotoledo/followers",
  "following_url": "https://api.github.com/users/rodrigotoledo/following{/other_user}",
  "gists_url": "https://api.github.com/users/rodrigotoledo/gists{/gist_id}",
  "starred_url": "https://api.github.com/users/rodrigotoledo/starred{/owner}{/repo}",
  "subscriptions_url": "https://api.github.com/users/rodrigotoledo/subscriptions",
  "organizations_url": "https://api.github.com/users/rodrigotoledo/orgs",
  "repos_url": "https://api.github.com/users/rodrigotoledo/repos",
  "events_url": "https://api.github.com/users/rodrigotoledo/events{/privacy}",
  "received_events_url": "https://api.github.com/users/rodrigotoledo/received_events",
  "type": "User",
  "site_admin": false,
  "name": "Rodrigo Toledo",
  "company": "RToledo",
  "blog": "http://www.rtoledo.inf.br",
  "location": null,
  "email": null,
  "hireable": true,
  "bio": null,
  "twitter_username": null,
  "public_repos": 23,
  "public_gists": 1,
  "followers": 18,
  "following": 2,
  "created_at": "2008-08-23T02:23:41Z",
  "updated_at": "2021-02-18T14:10:49Z"
}
